id,name,model_id:id,group_id:id,perm_read,perm_write,perm_create,perm_unlink
akses_cara_bayar,access_cara_bayar,model_cara_bayar,,1,1,1,1
akses_cara_bayar_jasa_line,access_cara_bayar_jasa_line,model_cara_bayar_jasa_line,,1,1,1,1
akses_cara_bayar_obat_line,access_cara_bayar_obat_line,model_cara_bayar_obat_line,,1,1,1,1